14-1-1b checks
…
4. Matching of litter types to sources

There is a step in the code where litter types in the main data set are matched to a spreadsheet with the suspected source of each litter type. If there are discrepancies between the litter type names in the two datasets they will not join correctly.

There are 0 unmatched litter types. If there are any they will be listed below.

The following table shows the litter types retained in the dataset classified by suspected source (please check that there is nothing weird in here, and that all items are plastic related):

## [1] "Litter types included in estimate and classified by suspected source: "

## # A tibble: 75 x 2
##    litter_type                                             source     
##    <chr>                                                   <chr>      
##  1 plastic_polystyrene_4_6_pack_yokes                      public     
##  2 plastic_polystyrene_bag_ends_from_tear_off_plastic_bags non-sourced
##  3 plastic_polystyrene_bagged_dog_faeces                   public     
##  4 plastic_polystyrene_bags_e_g_shopping                   public     
##  5 plastic_polystyrene_bags_mesh_e_g_vegetable             shipping   
##  6 plastic_polystyrene_bags_small_e_g_freezer_vegetable    public     
##  7 plastic_polystyrene_biofilm_support_media               non-sourced
##  8 plastic_polystyrene_bottles_containers_cleaner          shipping   
##  9 plastic_polystyrene_bottles_containers_drinks           public     
## 10 plastic_polystyrene_bottles_containers_drums_other      non-sourced
## # ... with 65 more rows
…
